<?xml version="1.0" encoding="UTF-8" standalone="no"?>
<!-- Created with Inkscape (http://www.inkscape.org/) -->

<svg
   xmlns:dc="http://purl.org/dc/elements/1.1/"
   xmlns:cc="http://creativecommons.org/ns#"
   xmlns:rdf="http://www.w3.org/1999/02/22-rdf-syntax-ns#"
   xmlns:svg="http://www.w3.org/2000/svg"
   xmlns="http://www.w3.org/2000/svg"
   xmlns:xlink="http://www.w3.org/1999/xlink"
   xmlns:sodipodi="http://sodipodi.sourceforge.net/DTD/sodipodi-0.dtd"
   xmlns:inkscape="http://www.inkscape.org/namespaces/inkscape"
   id="svg2"
   version="1.1"
   inkscape:version="0.48.5 r10040"
   width="512"
   height="512"
   sodipodi:docname="kipi-panorama.svg">
  <metadata
     id="metadata8">
    <rdf:RDF>
      <cc:Work
         rdf:about="">
        <dc:format>image/svg+xml</dc:format>
        <dc:type
           rdf:resource="http://purl.org/dc/dcmitype/StillImage" />
        <dc:title />
      </cc:Work>
    </rdf:RDF>
  </metadata>
  <defs
     id="defs6">
    <linearGradient
       id="linearGradient4460-6">
      <stop
         offset="0"
         style="stop-color:#350b0b;stop-opacity:1;"
         id="stop3807" />
      <stop
         offset="1"
         style="stop-color:#7a4242;stop-opacity:1;"
         id="stop3809" />
    </linearGradient>
    <linearGradient
       gradientTransform="matrix(1.10525,0,0,1.10525,-134.22538,-295.81512)"
       xlink:href="#linearGradient4460-6"
       id="linearGradient3004"
       y1="279.09601"
       y2="268.32999"
       gradientUnits="userSpaceOnUse"
       x2="0" />
    <linearGradient
       id="linearGradient3895-9-0-3-2-4-0">
      <stop
         offset="0"
         style="stop-color:#dda3a8"
         id="stop2999" />
      <stop
         offset="1"
         style="stop-color:#933039"
         id="stop3001" />
    </linearGradient>
    <radialGradient
       cx="148.004"
       cy="160"
       gradientTransform="matrix(0.97656,0,0,0.97656,-16.5349,-236.25)"
       r="128"
       id="radialGradient4432"
       xlink:href="#linearGradient3895-9-0-3-2-4-0"
       gradientUnits="userSpaceOnUse" />
    <linearGradient
       x2="0"
       gradientUnits="userSpaceOnUse"
       y2="268.32999"
       y1="279.09601"
       id="linearGradient3014"
       xlink:href="#linearGradient4460"
       gradientTransform="matrix(1.10525,0,0,1.10525,-134.27874,-295.76183)" />
    <linearGradient
       id="linearGradient4460">
      <stop
         id="stop7"
         style="stop-color:#71345c;stop-opacity:1;"
         offset="0" />
      <stop
         id="stop9"
         style="stop-color:#a55689;stop-opacity:1;"
         offset="1" />
    </linearGradient>
    <inkscape:perspective
       id="perspective53"
       inkscape:persp3d-origin="64 : 42.666667 : 1"
       inkscape:vp_z="128 : 64 : 1"
       inkscape:vp_y="0 : 1000 : 0"
       inkscape:vp_x="0 : 64 : 1"
       sodipodi:type="inkscape:persp3d" />
    <filter
       id="filter3174"
       color-interpolation-filters="sRGB">
      <feGaussianBlur
         stdDeviation="1.71"
         id="feGaussianBlur3176" />
    </filter>
    <linearGradient
       gradientTransform="scale(1.0058652,0.994169)"
       gradientUnits="userSpaceOnUse"
       id="ButtonShadow"
       y2="7.0165396"
       x2="45.447727"
       y1="92.539597"
       x1="45.447727">
      <stop
         offset="0"
         style="stop-color:#000000;stop-opacity:1"
         id="stop3750" />
      <stop
         offset="1"
         style="stop-color:#000000;stop-opacity:0.58823532"
         id="stop3752" />
    </linearGradient>
  </defs>
  <sodipodi:namedview
     pagecolor="#ffffff"
     bordercolor="#666666"
     borderopacity="1"
     objecttolerance="10"
     gridtolerance="10"
     guidetolerance="10"
     inkscape:pageopacity="0"
     inkscape:pageshadow="2"
     inkscape:window-width="953"
     inkscape:window-height="578"
     id="namedview4"
     showgrid="false"
     inkscape:zoom="0.65186405"
     inkscape:cx="439.22054"
     inkscape:cy="230.14274"
     inkscape:window-x="453"
     inkscape:window-y="89"
     inkscape:window-maximized="0"
     inkscape:current-layer="g3772" />
  <g
     id="g3772"
     transform="matrix(1.1182684,0,0,1.1182684,-53.072276,-18.727261)">
    <rect
       transform="matrix(0.99677168,-0.08028831,0.08028831,0.99677168,0,0)"
       y="95.223473"
       x="123.92593"
       height="250.36272"
       width="327.47449"
       id="rect2996"
       style="fill:#ff80b2;fill-opacity:1;fill-rule:evenodd;stroke:#ffffff;stroke-width:12.51935577000000066;stroke-linecap:butt;stroke-linejoin:miter;stroke-miterlimit:4;stroke-opacity:1;stroke-dasharray:none" />
    <g
       id="g3025"
       transform="matrix(0.64463346,-0.22591563,0.21097038,0.60198829,49.237664,150.65745)">
      <rect
         ry="15.849221"
         y="66.992546"
         x="10.78735"
         height="370.17889"
         width="492.92245"
         id="rect3011"
         style="fill:#357ced;fill-opacity:1;fill-rule:evenodd;stroke:none" />
      <path
         inkscape:connector-curvature="0"
         id="path3005"
         d="m 485.19699,332.56353 c -20.70321,-2.7948 -79.68264,-16.08844 -123.65486,-27.87114 -28.36206,-7.59985 -51.9336,-14.1841 -52.3812,-14.6317 -2.28904,-2.28904 6.59392,-10.77558 16.61869,-15.87705 l 11.34581,-5.77372 1.32172,-11.85203 c 0.72694,-6.51862 3.07766,-15.29398 5.22382,-19.50081 3.88755,-7.62021 18.4833,-20.19008 31.44652,-27.08173 9.42796,-5.0122 35.17088,-4.94407 44.81113,0.1186 10.65689,5.59658 20.8177,14.25832 25.37386,21.63033 3.59673,5.81963 5.20587,6.74492 11.72984,6.74492 12.02855,0 29.12275,7.38797 38.39331,16.59328 l 8.28032,8.22204 0,35.32593 0,35.32594 -6.33201,-0.29192 c -3.4826,-0.16056 -8.96223,-0.64699 -12.17695,-1.08094 z"
         style="fill:#ffffff;fill-opacity:1;fill-rule:nonzero;stroke:none" />
      <path
         inkscape:connector-curvature="0"
         id="path3781"
         d="m 291.34814,293.53491 c -11.13465,-2.62646 -11.47179,-2.81968 -14.82424,-8.49541 -3.51057,-5.94347 -8.60062,-10.56928 -14.79972,-13.44989 -3.00518,-1.39649 -2.8185,-1.04954 -5.68005,-10.55598 -3.0382,-10.09312 -7.5334,-16.5761 -15.46312,-22.30146 -3.72016,-2.68592 -6.08763,-4.98238 -6.08763,-5.90479 0,-0.356 0.96197,-2.44967 2.13774,-4.65258 8.04139,-15.06643 23.38964,-25.95978 40.67701,-28.87026 5.08372,-0.8559 16.16799,-0.85545 21.26409,8.3e-4 14.99338,2.5193 27.2901,9.87426 36.68848,21.9442 4.7183,6.0595 5.39807,6.56019 9.41777,6.93647 3.43466,0.32153 4.524,0.90744 4.524,2.43332 0,0.62736 -1.22364,3.78532 -2.7192,7.01767 -4.08711,8.83344 -5.37877,13.31458 -7.14252,24.77883 -0.61108,3.97215 -1.17865,7.27402 -1.26124,7.33748 -0.0826,0.0635 -3.44313,1.59581 -7.46783,3.40521 -10.42915,4.68863 -14.70048,7.68279 -21.45432,15.03923 -1.76485,1.92232 -4.01633,4.2753 -5.00325,5.22884 -1.73177,1.67317 -1.87093,1.73264 -3.98481,1.70306 -1.20473,-0.0169 -5.17424,-0.7345 -8.82116,-1.59477 z"
         style="fill:#cccccc;fill-opacity:1;fill-rule:nonzero;stroke:none" />
      <path
         inkscape:connector-curvature="0"
         id="path3009"
         d="m 243.61955,275.38253 c -15.00202,-2.99104 -38.14565,-6.98523 -51.43041,-8.87597 l -24.15403,-3.43772 6.04596,-5.40213 c 3.32529,-2.97118 9.37265,-6.00886 13.43833,-6.75042 4.53992,-0.82803 10.51997,-4.2046 15.49779,-8.75074 11.70711,-10.6918 30.17763,-12.65015 42.59218,-4.51586 4.97199,3.25781 12.54589,17.10875 12.74149,23.30144 0.0664,2.08849 3.70859,6.37431 8.17061,9.6135 7.50241,5.44626 9.77577,9.22782 5.98176,9.95014 -0.88405,0.16831 -13.88166,-2.14119 -28.88368,-5.13224 z"
         style="fill:#ffffff;fill-opacity:1;fill-rule:nonzero;stroke:none" />
      <path
         style="fill:#51b329"
         d="m 9.9316069,361.77642 0,-76.73763 10.0950061,-3.65281 c 21.266728,-7.6952 50.322342,-14.45633 77.811078,-18.10635 19.679019,-2.61302 54.068579,-3.51998 71.023449,-1.87309 37.36516,3.62939 95.73567,14.55097 140.88259,26.3602 122.51213,32.04594 137.03887,35.39244 176.97648,40.76979 8.32488,1.12089 15.79637,2.55228 16.6033,3.18087 1.14954,0.89546 1.4016,12.51586 1.16432,53.67599 l -0.30284,52.5331 -247.12669,0.29377 -247.1266931,0.29378 0,-76.73762 z"
         id="path2984"
         inkscape:connector-curvature="0" />
      <rect
         y="414.21872"
         x="9.9082222"
         height="25.328032"
         width="494.30011"
         id="rect3783"
         style="fill:#d2d3d3;fill-opacity:1;fill-rule:evenodd;stroke:none" />
    </g>
  </g>
</svg>
