<?xml version="1.0" encoding="UTF-8" standalone="no"?>
<!-- Created with Inkscape (http://www.inkscape.org/) -->

<svg
   xmlns:dc="http://purl.org/dc/elements/1.1/"
   xmlns:cc="http://creativecommons.org/ns#"
   xmlns:rdf="http://www.w3.org/1999/02/22-rdf-syntax-ns#"
   xmlns:svg="http://www.w3.org/2000/svg"
   xmlns="http://www.w3.org/2000/svg"
   xmlns:sodipodi="http://sodipodi.sourceforge.net/DTD/sodipodi-0.dtd"
   xmlns:inkscape="http://www.inkscape.org/namespaces/inkscape"
   width="128"
   height="128"
   id="svg859"
   version="1.1"
   inkscape:version="0.48.5 r10040"
   sodipodi:docname="show-desktop.svg">
  <defs
     id="defs861" />
  <sodipodi:namedview
     id="base"
     pagecolor="#ffffff"
     bordercolor="#666666"
     borderopacity="1.0"
     inkscape:pageopacity="0.0"
     inkscape:pageshadow="2"
     inkscape:zoom="2.8694188"
     inkscape:cx="5.0290885"
     inkscape:cy="69.522082"
     inkscape:document-units="px"
     inkscape:current-layer="layer1"
     showgrid="false"
     width="0px"
     height="0px"
     fit-margin-top="0"
     fit-margin-left="0"
     fit-margin-right="0"
     fit-margin-bottom="0"
     inkscape:window-width="1366"
     inkscape:window-height="744"
     inkscape:window-x="0"
     inkscape:window-y="24"
     inkscape:window-maximized="1"
     showguides="false">
    <sodipodi:guide
       position="2,41.000017"
       orientation="34,0"
       id="guide3353" />
    <sodipodi:guide
       position="2,7.0000174"
       orientation="0,43.999992"
       id="guide3355" />
    <sodipodi:guide
       position="45.999992,7.0000174"
       orientation="-34,0"
       id="guide3357" />
    <sodipodi:guide
       position="45.999992,41.000017"
       orientation="0,-43.999992"
       id="guide3359" />
    <sodipodi:guide
       position="2,41.000017"
       orientation="4,0"
       id="guide3361" />
    <sodipodi:guide
       position="2,37.000017"
       orientation="0,43.999981"
       id="guide3363" />
    <sodipodi:guide
       position="45.999981,37.000017"
       orientation="-4,0"
       id="guide3365" />
    <sodipodi:guide
       position="45.999981,41.000017"
       orientation="0,-43.999981"
       id="guide3367" />
  </sodipodi:namedview>
  <metadata
     id="metadata864">
    <rdf:RDF>
      <cc:Work
         rdf:about="">
        <dc:format>image/svg+xml</dc:format>
        <dc:type
           rdf:resource="http://purl.org/dc/dcmitype/StillImage" />
        <dc:title></dc:title>
      </cc:Work>
    </rdf:RDF>
  </metadata>
  <g
     inkscape:label="Capa 1"
     inkscape:groupmode="layer"
     id="layer1"
     transform="translate(0,-924.3622)">
    <rect
       style="fill:#2980b9;fill-opacity:1;stroke:none"
       id="rect907"
       width="119.07301"
       height="90.195091"
       x="4.3692675"
       y="944.36346" />
    <rect
       y="944.36346"
       x="4.3692675"
       height="10.611191"
       width="119.07298"
       id="rect920"
       style="fill:#37353a;fill-opacity:1;stroke:none" />
    <rect
       style="fill:none;stroke:none"
       id="rect914"
       width="13.057858"
       height="9.431694"
       x="15.194091"
       y="965.58575" />
    <path
       sodipodi:type="arc"
       style="fill:none;stroke:none"
       id="path3290"
       sodipodi:cx="3.9986143"
       sodipodi:cy="1024.6736"
       sodipodi:rx="2.0013857"
       sodipodi:ry="2.0000615"
       d="m 6,1024.6736 c 0,1.1046 -0.8960509,2 -2.0013857,2 -1.1053348,0 -2.0013857,-0.8954 -2.0013857,-2 0,-1.1046 0.8960509,-2.0001 2.0013857,-2.0001 C 5.1039491,1022.6735 6,1023.569 6,1024.6736 z"
       transform="matrix(2.7062054,0,0,2.6527978,-1.0431435,-1738.5756)" />
    <path
       d="m 6,1017.3622 c 0,1.1046 -0.8960509,2 -2.0013857,2 -1.1053348,0 -2.0013857,-0.8954 -2.0013857,-2 0,-1.1046 0.8960509,-2.0001 2.0013857,-2.0001 1.1053348,0 2.0013857,0.8955 2.0013857,2.0001 z"
       sodipodi:ry="2.0000615"
       sodipodi:rx="2.0013857"
       sodipodi:cy="1017.3622"
       sodipodi:cx="3.9986143"
       id="path3292"
       style="fill:none;stroke:none"
       sodipodi:type="arc"
       transform="matrix(2.7062054,0,0,2.6527978,-1.0431435,-1738.5756)" />
    <path
       sodipodi:type="arc"
       style="fill:none;stroke:none"
       id="path3294"
       sodipodi:cx="8.4118843"
       sodipodi:cy="1024.3622"
       sodipodi:rx="1.0006928"
       sodipodi:ry="1.0000308"
       d="m 9.4125772,1024.3622 c 0,0.5523 -0.4480255,1 -1.0006929,1 -0.5526674,0 -1.0006928,-0.4477 -1.0006928,-1 0,-0.5523 0.4480254,-1 1.0006928,-1 0.5526674,0 1.0006929,0.4477 1.0006929,1 z"
       transform="matrix(2.7062054,0,0,2.6527978,-1.0431435,-1738.5756)" />
    <path
       d="m 9.4125772,1030.3622 c 0,0.5523 -0.4480255,1 -1.0006929,1 -0.5526674,0 -1.0006928,-0.4477 -1.0006928,-1 0,-0.5523 0.4480254,-1 1.0006928,-1 0.5526674,0 1.0006929,0.4477 1.0006929,1 z"
       sodipodi:ry="1.0000308"
       sodipodi:rx="1.0006928"
       sodipodi:cy="1030.3622"
       sodipodi:cx="8.4118843"
       id="path3296"
       style="fill:none;stroke:none"
       sodipodi:type="arc"
       transform="matrix(2.7062054,0,0,2.6527978,-1.0431435,-1738.5756)" />
    <rect
       style="fill:#ffffff;fill-opacity:1;stroke:none"
       id="rect825"
       width="6.4795084"
       height="6.3516335"
       x="94.246002"
       y="946.49304" />
    <rect
       y="946.49304"
       x="106.13792"
       height="6.3516335"
       width="6.4795084"
       id="rect827"
       style="fill:#ffffff;fill-opacity:1;stroke:none" />
    <path
       sodipodi:type="arc"
       style="fill:none;stroke:none"
       id="path3303"
       sodipodi:cx="43.998596"
       sodipodi:cy="1013.3622"
       sodipodi:rx="2.0013857"
       sodipodi:ry="2.0000615"
       d="m 45.999982,1013.3622 c 0,1.1046 -0.896051,2 -2.001386,2 -1.105335,0 -2.001385,-0.8954 -2.001385,-2 0,-1.1046 0.89605,-2.0001 2.001385,-2.0001 1.105335,0 2.001386,0.8955 2.001386,2.0001 z"
       transform="matrix(2.7062054,0,0,2.6527978,-1.0431435,-1738.5756)" />
    <path
       d="m 39.605666,1013.3622 c 0,0.5523 -0.448026,1 -1.000693,1 -0.552668,0 -1.000693,-0.4477 -1.000693,-1 0,-0.5523 0.448025,-1 1.000693,-1 0.552667,0 1.000693,0.4477 1.000693,1 z"
       sodipodi:ry="1.0000308"
       sodipodi:rx="1.0006928"
       sodipodi:cy="1013.3622"
       sodipodi:cx="38.604973"
       id="path3305"
       style="fill:none;stroke:none"
       sodipodi:type="arc"
       transform="matrix(2.7062054,0,0,2.6527978,-1.0431435,-1738.5756)" />
    <path
       sodipodi:type="arc"
       style="fill:none;stroke:none"
       id="path3307"
       sodipodi:cx="34.210655"
       sodipodi:cy="1013.3622"
       sodipodi:rx="1.0006928"
       sodipodi:ry="1.0000308"
       d="m 35.211348,1013.3622 c 0,0.5523 -0.448025,1 -1.000693,1 -0.552667,0 -1.000693,-0.4477 -1.000693,-1 0,-0.5523 0.448026,-1 1.000693,-1 0.552668,0 1.000693,0.4477 1.000693,1 z"
       transform="matrix(2.7062054,0,0,2.6527978,-1.0431435,-1738.5756)" />
    <rect
       y="946.49304"
       x="82.35408"
       height="6.3516335"
       width="6.4795084"
       id="rect3309"
       style="fill:#ffffff;fill-opacity:1;stroke:none" />
    <path
       sodipodi:type="arc"
       style="fill:none;stroke:none"
       id="path3311"
       sodipodi:cx="23.997576"
       sodipodi:cy="1048.8622"
       sodipodi:rx="3.502425"
       sodipodi:ry="3.5001078"
       d="m 27.500001,1048.8622 c 0,1.933 -1.568089,3.5001 -3.502425,3.5001 -1.934336,0 -3.502425,-1.5671 -3.502425,-3.5001 0,-1.9331 1.568089,-3.5001 3.502425,-3.5001 1.934336,0 3.502425,1.567 3.502425,3.5001 z"
       transform="matrix(2.7062054,0,0,2.6527978,-1.0431435,-1738.5756)" />
    <path
       d="m 27.500001,1007.8622 c 0,1.933 -1.568089,3.5001 -3.502425,3.5001 -1.934336,0 -3.502425,-1.5671 -3.502425,-3.5001 0,-1.9331 1.568089,-3.5001 3.502425,-3.5001 1.934336,0 3.502425,1.567 3.502425,3.5001 z"
       sodipodi:ry="3.5001078"
       sodipodi:rx="3.502425"
       sodipodi:cy="1007.8622"
       sodipodi:cx="23.997576"
       id="path3313"
       style="fill:none;stroke:none"
       sodipodi:type="arc"
       transform="matrix(2.7062054,0,0,2.6527978,-1.0431435,-1738.5756)" />
    <path
       d="m 1.9999999,1028.3622 c 0,0.5523 -0.4480254,1 -1.0006928,1 -0.5526674,0 -1.00069285,-0.4477 -1.00069285,-1 0,-0.5523 0.44802545,-1 1.00069285,-1 0.5526674,0 1.0006928,0.4477 1.0006928,1 z"
       sodipodi:ry="1.0000308"
       sodipodi:rx="1.0006928"
       sodipodi:cy="1028.3622"
       sodipodi:cx="0.9993071"
       id="path3315"
       style="fill:none;stroke:none"
       sodipodi:type="arc"
       transform="matrix(2.7062054,0,0,2.6527978,-1.0431435,-1738.5756)" />
    <path
       sodipodi:type="arc"
       style="fill:none;stroke:none"
       id="path3317"
       sodipodi:cx="46.999306"
       sodipodi:cy="1028.3622"
       sodipodi:rx="1.0006928"
       sodipodi:ry="1.0000308"
       d="m 47.999999,1028.3622 c 0,0.5523 -0.448026,1 -1.000693,1 -0.552668,0 -1.000693,-0.4477 -1.000693,-1 0,-0.5523 0.448025,-1 1.000693,-1 0.552667,0 1.000693,0.4477 1.000693,1 z"
       transform="matrix(2.7062054,0,0,2.6527978,-1.0431435,-1738.5756)" />
    <g
       id="g3020"
       transform="translate(2.257487,-12)">
      <g
         transform="matrix(0.11085336,0,0,0.11085336,32.79203,977.62241)"
         id="g3016">
        <path
           sodipodi:type="arc"
           style="fill:#ffffff;fill-opacity:1;fill-rule:nonzero;stroke:#4169e1;stroke-width:0;stroke-linecap:round;stroke-linejoin:miter;stroke-miterlimit:4;stroke-opacity:1;stroke-dasharray:none"
           id="path3012"
           sodipodi:cx="278.77966"
           sodipodi:cy="273.35593"
           sodipodi:rx="137.76271"
           sodipodi:ry="134.50847"
           d="m 416.54237,273.35593 c 0,74.28697 -61.67846,134.50847 -137.76271,134.50847 -76.08424,0 -137.76271,-60.2215 -137.76271,-134.50847 0,-74.28698 61.67847,-134.50847 137.76271,-134.50847 76.08425,0 137.76271,60.22149 137.76271,134.50847 z"
           transform="matrix(1.1612903,0,0,1.1612903,-67.184257,-59.106617)" />
        <path
           inkscape:connector-curvature="0"
           id="path2986"
           d="m 222.26198,501.14565 c -4.30086,-1.91972 -8.8755,-6.83229 -10.9168,-11.72322 -1.05206,-2.5207 -2.10198,-12.21014 -3.0009,-27.69445 -0.76045,-13.09948 -1.76183,-24.86184 -2.22527,-26.13857 -0.61471,-1.69349 -3.61992,-3.29116 -11.11126,-5.90712 -5.64776,-1.97219 -14.15283,-5.53872 -18.90014,-7.92563 -4.74732,-2.38689 -9.66575,-4.33982 -10.92986,-4.33982 -1.4178,0 -9.17289,6.30634 -20.24155,16.46016 -9.86873,9.05309 -19.53853,17.27834 -21.48843,18.27834 -4.01368,2.05841 -13.04408,2.39342 -17.70735,0.65691 -3.70788,-1.38073 -42.93205,-40.0341 -45.446972,-44.7856 -2.494396,-4.71271 -2.227632,-13.52832 0.570993,-18.86902 1.273967,-2.43114 9.570429,-12.28384 18.4366,-21.89489 9.544086,-10.3459 16.120313,-18.37742 16.120313,-19.68764 0,-1.21716 -1.952925,-6.09719 -4.339822,-10.84451 -2.386907,-4.74731 -5.945723,-13.23031 -7.908496,-18.85111 -1.962772,-5.6208 -4.371725,-10.63588 -5.353239,-11.14463 -0.981514,-0.50874 -12.50232,-1.51584 -25.601799,-2.23798 -15.234677,-0.83984 -25.488406,-1.91133 -28.454859,-2.97347 -5.653171,-2.02412 -12.166154,-8.95574 -13.086319,-13.92748 -0.373222,-2.0165 -0.526018,-16.95603 -0.339545,-33.19894 l 0.339035,-29.53257 3.394499,-4.25467 c 5.998764,-7.51887 8.818558,-8.27414 37.470636,-10.03647 16.217077,-0.99749 26.07544,-2.05371 26.894321,-2.88146 0.711017,-0.71871 3.141161,-6.29174 5.40032,-12.38453 2.259159,-6.09278 5.790047,-14.43022 7.846416,-18.52763 2.056369,-4.09742 3.738852,-8.35042 3.738852,-9.45112 0,-1.1007 -6.783104,-9.44161 -15.073562,-18.53535 -8.290458,-9.09373 -16.220512,-18.05098 -17.622339,-19.90501 -3.942738,-5.21453 -5.276016,-11.67174 -3.716142,-17.99765 1.177812,-4.77647 3.335244,-7.36582 21.353613,-25.628509 11.02389,-11.173374 21.892946,-21.268004 24.153466,-22.432512 5.24571,-2.702336 13.58672,-2.739746 18.79521,-0.0843 2.19318,1.118147 11.81505,9.218777 21.38193,18.001398 9.56689,8.782622 18.04255,16.336501 18.83484,16.786421 0.83494,0.47414 5.9883,-1.3363 12.25898,-4.306755 5.95017,-2.818609 14.85312,-6.484546 19.78434,-8.146524 6.68624,-2.253465 9.28056,-3.693366 10.2037,-5.663251 0.68083,-1.452818 1.84845,-13.359253 2.59471,-26.458732 1.43521,-25.192589 2.29758,-29.174902 7.49239,-34.5984 5.77848,-6.032872 9.10175,-6.527787 41.4002,-6.165491 l 29.4183,0.329989 4.60225,3.047626 c 7.91816,5.243453 8.87664,8.503447 10.74144,36.533985 0.90266,13.568235 1.88767,25.726302 2.18892,27.017905 0.42397,1.817753 2.84874,3.151873 10.73157,5.904547 5.60112,1.955893 14.57094,5.759495 19.93294,8.452459 5.36201,2.692962 10.17874,4.896292 10.70384,4.896292 0.5251,0 9.13419,-7.507735 19.13132,-16.68384 9.99711,-9.176115 20.02608,-17.65062 22.2866,-18.832231 5.34357,-2.793175 13.2972,-2.767729 19.14106,0.06126 2.7747,1.343203 12.20097,9.922093 24.03971,21.878622 20.32185,20.524051 21.92338,22.872191 21.93916,32.167091 0.0112,6.57408 -2.91549,10.88667 -20.38644,30.04035 -9.49951,10.41446 -17.27184,19.37698 -17.27184,19.91669 0,0.53971 2.47945,6.14961 5.5099,12.46644 3.03044,6.31683 6.64457,15.16341 8.03139,19.65907 1.72287,5.585 3.22323,8.472 4.73705,9.115 1.21856,0.51759 13.46663,1.64375 27.21794,2.50259 27.2897,1.70436 31.68548,2.82722 36.26096,9.26258 4.3254,6.08362 4.82847,10.64305 4.45389,40.36657 l -0.35831,28.43287 -3.33867,4.74734 c -5.96165,8.47704 -7.4673,8.91135 -37.74248,10.88694 -14.79312,0.96532 -27.15606,2.0146 -27.47321,2.33176 -0.31716,0.31716 -2.15365,5.04527 -4.08109,10.5069 -1.92745,5.46165 -5.71766,14.33754 -8.42269,19.72423 -2.70506,5.38668 -4.76583,10.45844 -4.57953,11.27058 0.18631,0.81214 7.56699,9.357 16.40153,18.98858 8.83453,9.63158 17.18441,19.72394 18.55528,22.42745 2.9119,5.74259 3.18198,11.82324 0.78045,17.57091 -2.11933,5.07227 -38.0926,41.63744 -43.93967,44.66265 -4.88898,2.5295 -13.79465,2.80128 -18.91195,0.57716 -1.96058,-0.85213 -11.78995,-9.07509 -21.84304,-18.27325 -10.05309,-9.19817 -19.0779,-16.72623 -20.05514,-16.72903 -0.97724,-0.003 -6.64017,2.26759 -12.58429,5.04529 -5.94413,2.77771 -14.75197,6.34993 -19.57297,7.93828 -6.66342,2.19535 -8.89443,3.44155 -9.30323,5.19658 -0.29576,1.26977 -1.2763,13.40995 -2.17896,26.9782 -1.98537,29.84285 -3.126,33.07797 -13.51793,38.34024 -3.01332,1.52589 -7.99984,1.78875 -33.23335,1.7519 -22.33262,-0.0326 -30.51147,-0.41089 -33.01142,-1.52676 z m 43.75724,-132.50462 c 26.78112,-2.80677 49.15657,-13.48771 68.20616,-32.55826 14.51901,-14.53499 23.8874,-30.84407 29.52845,-51.40499 3.53643,-12.88981 3.51558,-41.35248 -0.0399,-54.39963 -10.78971,-39.59432 -39.13333,-68.74625 -78.30863,-80.54181 -9.12821,-2.74847 -11.60682,-3.00909 -29.35613,-3.08662 -17.00063,-0.0742 -20.54479,0.23162 -28.80223,2.48586 -41.22993,11.25552 -72.76306,44.38443 -81.37953,85.49784 -7.7414,36.93802 3.5778,74.64033 30.54545,101.7417 14.12004,14.19006 32.44092,24.60186 52.28941,29.71619 5.65987,1.45837 13.69183,2.58238 25.13135,3.51692 0.91392,0.0747 6.39742,-0.36058 12.18556,-0.9672 z m -27.47101,-46.4431 c -28.24696,-7.66077 -48.01557,-31.70052 -49.7659,-60.51815 -1.22382,-20.14894 5.2603,-37.19647 19.56861,-51.44824 26.05766,-25.95469 67.66639,-26.19795 93.39392,-0.546 21.19059,21.12833 26.27511,51.17802 13.12257,77.55487 -11.20256,22.46624 -31.84016,35.72424 -57.15268,36.716 -8.61738,0.33764 -12.87949,-0.0534 -19.16652,-1.75848 z m 31.60201,-27.93457 c 7.80185,-2.91905 17.10779,-11.56877 21.02165,-19.53928 2.76183,-5.62442 3.09528,-7.49672 3.09548,-17.38121 2.1e-4,-10.51503 -0.19264,-11.43349 -3.79628,-18.07997 -7.2743,-13.41658 -18.06759,-20.21506 -33.31407,-20.98387 -12.24764,-0.6176 -19.57845,1.97666 -28.42009,10.05742 -11.2101,10.2454 -15.67052,24.48856 -12.07007,38.54251 3.11639,12.16444 9.71875,20.42413 20.82444,26.05181 10.36058,5.25011 21.02537,5.68526 32.65894,1.33259 z"
           style="fill:#869094" />
      </g>
    </g>
  </g>
</svg>
