<?xml version="1.0" encoding="UTF-8" standalone="no"?>
<!-- Created with Inkscape (http://www.inkscape.org/) -->

<svg
   xmlns:dc="http://purl.org/dc/elements/1.1/"
   xmlns:cc="http://creativecommons.org/ns#"
   xmlns:rdf="http://www.w3.org/1999/02/22-rdf-syntax-ns#"
   xmlns:svg="http://www.w3.org/2000/svg"
   xmlns="http://www.w3.org/2000/svg"
   xmlns:sodipodi="http://sodipodi.sourceforge.net/DTD/sodipodi-0.dtd"
   xmlns:inkscape="http://www.inkscape.org/namespaces/inkscape"
   id="svg2"
   version="1.1"
   inkscape:version="0.48.5 r10040"
   width="512"
   height="512"
   sodipodi:docname="preferences-desktop-screensaver.svg">
  <metadata
     id="metadata8">
    <rdf:RDF>
      <cc:Work
         rdf:about="">
        <dc:format>image/svg+xml</dc:format>
        <dc:type
           rdf:resource="http://purl.org/dc/dcmitype/StillImage" />
        <dc:title />
      </cc:Work>
    </rdf:RDF>
  </metadata>
  <defs
     id="defs6" />
  <sodipodi:namedview
     pagecolor="#ffffff"
     bordercolor="#666666"
     borderopacity="1"
     objecttolerance="10"
     gridtolerance="10"
     guidetolerance="10"
     inkscape:pageopacity="0"
     inkscape:pageshadow="2"
     inkscape:window-width="1173"
     inkscape:window-height="657"
     id="namedview4"
     showgrid="false"
     inkscape:zoom="0.92187499"
     inkscape:cx="296.28866"
     inkscape:cy="177.07635"
     inkscape:window-x="97"
     inkscape:window-y="39"
     inkscape:window-maximized="0"
     inkscape:current-layer="svg2" />
  <rect
     style="fill:#6d6c6d;fill-opacity:1;fill-rule:evenodd;stroke:none"
     id="rect3005"
     width="478.22885"
     height="302.25717"
     x="18.182869"
     y="64.536064" />
  <path
     style="fill:#6b6b6b"
     d="m 171.89488,447.41541 c -0.28017,-0.73008 -0.37493,-3.20157 -0.2106,-5.4922 l 0.29877,-4.16476 19.90621,-0.25825 c 15.70957,-0.20381 20.33104,-0.55586 21.92169,-1.66995 1.70202,-1.19214 8.29985,-1.41171 42.42184,-1.41171 30.57727,0 40.9134,0.29016 42.49071,1.19282 1.39516,0.79841 8.55269,1.35059 21.64664,1.66996 l 19.56229,0.47713 0,5.24841 0,5.24842 -83.76409,0.24379 c -70.82377,0.20612 -83.8428,0.0387 -84.27346,-1.08366 z"
     id="path3797"
     inkscape:connector-curvature="0" />
  <path
     style="fill:#6d6c6d;fill-opacity:1;fill-rule:nonzero;stroke:none"
     d=""
     id="path3775"
     inkscape:connector-curvature="0" />
  <rect
     style="fill:#d191c4;fill-opacity:1;fill-rule:evenodd;stroke:none"
     id="rect3785"
     width="434.7757"
     height="254.71706"
     x="39.07753"
     y="86.793503" />
  <path
     style="fill:#f9f9f9;fill-opacity:1;fill-rule:nonzero;stroke:none"
     d="m 199.75063,252.01279 c -37.04687,-17.25059 -46.91294,-62.58657 -20.10812,-92.39995 18.00723,-20.02843 44.02135,-26.14395 67.31563,-15.82491 6.01033,2.66249 12.14294,6.31241 13.62801,8.11092 2.37631,2.87785 1.34437,3.55149 -8.60437,5.61684 -20.62631,4.28199 -38.00879,19.608 -46.01444,40.57045 -4.69562,12.29522 -3.25097,35.83551 2.94035,47.9141 6.72285,13.11541 6.4631,13.28596 -9.15706,6.01255 l 0,0 z"
     id="path3777"
     inkscape:connector-curvature="0" />
  <path
     style="fill:#f9f9f9;fill-opacity:1;fill-rule:nonzero;stroke:none"
     d="m 322.27101,198.84453 c -0.77207,-1.12215 -1.19134,-2.4471 -2.60292,-8.22558 -1.00035,-4.09505 -1.46727,-5.20641 -2.59179,-6.16896 -0.89602,-0.76696 -1.90638,-1.12144 -6.09259,-2.13756 -4.7576,-1.1548 -7.43035,-2.14303 -7.43035,-2.74732 0,-0.44276 2.10654,-1.13237 6.13004,-2.00679 4.09825,-0.89066 6.30947,-1.81171 7.49206,-3.12069 1.04473,-1.1564 1.81029,-3.01068 2.91915,-7.07065 0.96282,-3.52526 1.99013,-6.53678 2.29389,-6.72451 0.59682,-0.36886 1.69942,2.82537 2.93445,8.50116 0.71528,3.28716 1.11957,4.3407 1.98313,5.16781 1.15438,1.10566 2.08789,1.47243 7.58103,2.97854 3.42565,0.93925 6.24063,1.94035 6.46167,2.29799 0.27815,0.45007 -1.56858,1.13415 -7.59872,2.8148 -1.65843,0.46222 -3.61762,1.138 -4.35377,1.50174 -2.30361,1.13824 -2.92498,2.24876 -4.36969,7.80969 -1.2477,4.8026 -1.86159,6.87404 -2.16605,7.3087 -0.22216,0.31718 -0.25554,0.30709 -0.58954,-0.17837 l 0,0 z"
     id="path3779"
     inkscape:connector-curvature="0" />
  <path
     style="fill:#f9f9f9;fill-opacity:1;fill-rule:nonzero;stroke:none"
     d="m 282.04791,279.17243 c -0.22353,-0.56473 -0.81631,-2.67366 -1.31731,-4.68651 -1.20935,-4.85887 -1.87075,-6.6603 -2.97868,-8.11285 -1.25318,-1.64301 -1.80726,-1.89004 -7.29164,-3.25084 -5.38131,-1.33524 -6.77625,-1.81683 -6.77625,-2.33947 0,-0.42315 4.26479,-1.7699 10.24724,-3.23589 l 4.20868,-1.03133 1.16419,-4.37282 c 1.5501,-5.82234 2.78302,-9.40927 3.29258,-9.57913 0.50787,-0.16929 1.4775,2.36942 3.03685,7.95111 0.64668,2.31478 1.4081,4.57469 1.69205,5.02204 0.50193,0.79076 3.04348,1.71012 11.4003,4.12385 1.45932,0.42151 2.65331,0.91811 2.65331,1.10357 0,0.31547 -2.76924,1.24577 -10.27218,3.45082 -3.11361,0.91507 -3.14137,0.93387 -3.93979,2.66847 -0.44225,0.96079 -1.5242,4.19052 -2.40434,7.17716 -0.88015,2.98665 -1.75965,5.58965 -1.95444,5.78444 -0.22824,0.22824 -0.49867,-0.0109 -0.76057,-0.67262 l 0,0 z"
     id="path3781"
     inkscape:connector-curvature="0" />
  <path
     style="fill:#f9f9f9;fill-opacity:1;fill-rule:nonzero;stroke:none"
     d="m 355.24713,263.45436 c -0.21583,-0.40328 -0.90626,-2.77976 -1.53427,-5.28106 -1.32456,-5.27548 -2.50627,-8.10046 -3.7163,-8.88416 -0.47184,-0.30558 -3.29509,-1.22384 -6.27391,-2.04056 -5.03143,-1.37952 -6.84406,-2.01686 -6.84406,-2.40646 0,-0.42945 2.08703,-1.12045 7.77532,-2.57434 3.43095,-0.87693 6.35813,-1.72692 6.50483,-1.88887 0.1467,-0.16194 1.04171,-3.15928 1.98893,-6.66075 2.03232,-7.51264 2.31423,-8.32177 2.74362,-7.87473 0.48886,0.50896 1.63463,4.24607 2.94308,9.59935 l 1.1799,4.82732 2.06464,0.57155 c 4.1348,1.14462 10.13779,3.10555 11.00527,3.59496 l 0.88922,0.50167 -1.07221,0.54101 c -0.58971,0.29755 -3.0957,1.15146 -5.56887,1.89759 -7.00179,2.11234 -6.84695,2.0182 -7.70424,4.68443 -0.40605,1.26286 -1.26039,4.2218 -1.89852,6.57544 -0.63814,2.35363 -1.36945,4.56542 -1.62513,4.91509 -0.4364,0.59682 -0.48891,0.59085 -0.8573,-0.0975 l 0,0 z"
     id="path3783"
     inkscape:connector-curvature="0" />
  <rect
     style="fill:#989898;fill-opacity:1;fill-rule:evenodd;stroke:none"
     id="rect3791"
     width="121.50297"
     height="71.730667"
     x="196.58868"
     y="365.95209" />
</svg>
