<?xml version="1.0" encoding="UTF-8" standalone="no"?>
<svg
   xmlns:dc="http://purl.org/dc/elements/1.1/"
   xmlns:cc="http://creativecommons.org/ns#"
   xmlns:rdf="http://www.w3.org/1999/02/22-rdf-syntax-ns#"
   xmlns:svg="http://www.w3.org/2000/svg"
   xmlns="http://www.w3.org/2000/svg"
   xmlns:xlink="http://www.w3.org/1999/xlink"
   xmlns:sodipodi="http://sodipodi.sourceforge.net/DTD/sodipodi-0.dtd"
   xmlns:inkscape="http://www.inkscape.org/namespaces/inkscape"
   width="48"
   viewBox="0 0 48 48"
   height="48"
   id="svg3418"
   version="1.1"
   inkscape:version="0.48.5 r10040"
   sodipodi:docname="application-document.svg">
  <metadata
     id="metadata3450">
    <rdf:RDF>
      <cc:Work
         rdf:about="">
        <dc:format>image/svg+xml</dc:format>
        <dc:type
           rdf:resource="http://purl.org/dc/dcmitype/StillImage" />
        <dc:title></dc:title>
      </cc:Work>
    </rdf:RDF>
  </metadata>
  <defs
     id="defs3448">
    <radialGradient
       gradientUnits="userSpaceOnUse"
       gradientTransform="matrix(1.000000,0.000000,0.000000,0.999828,0.000000,5.458908e-2)"
       r="272.75000"
       fy="291.33847"
       fx="270.38345"
       cy="291.33847"
       cx="270.38345"
       id="radialGradient2088"
       xlink:href="#linearGradient9773"
       inkscape:collect="always" />
    <linearGradient
       gradientUnits="userSpaceOnUse"
       y2="326.09601"
       x2="205.71222"
       y1="326.09601"
       x1="67.419754"
       id="linearGradient11329"
       xlink:href="#linearGradient11319"
       inkscape:collect="always" />
    <radialGradient
       gradientUnits="userSpaceOnUse"
       gradientTransform="matrix(1.000000,1.011377e-12,-1.067117e-12,1.055113,-0.848696,-19.76316)"
       r="69.646233"
       fy="363.18549"
       fx="170.51384"
       cy="363.18549"
       cx="170.51384"
       id="radialGradient11317"
       xlink:href="#linearGradient11309"
       inkscape:collect="always" />
    <radialGradient
       gradientUnits="userSpaceOnUse"
       gradientTransform="matrix(1.000000,0.000000,0.000000,1.010056,0.000000,0.520280)"
       r="253.79260"
       fy="346.01736"
       fx="284.37750"
       cy="346.01736"
       cx="284.37750"
       id="radialGradient11277"
       xlink:href="#linearGradient8293"
       inkscape:collect="always" />
    <linearGradient
       gradientUnits="userSpaceOnUse"
       y2="287.28198"
       x2="519.09448"
       y1="287.28198"
       x1="298.87024"
       id="linearGradient11269"
       xlink:href="#linearGradient8287"
       inkscape:collect="always" />
    <linearGradient
       gradientUnits="userSpaceOnUse"
       y2="321.72861"
       x2="237.40157"
       y1="321.72861"
       x1="34.775593"
       id="linearGradient11259"
       xlink:href="#linearGradient8287"
       inkscape:collect="always" />
    <linearGradient
       gradientTransform="matrix(0.956805,0.000000,0.000000,0.966598,12.68059,38.87322)"
       y2="321.89606"
       x2="549.21260"
       y1="321.89606"
       x1="18.712593"
       gradientUnits="userSpaceOnUse"
       id="linearGradient10523"
       xlink:href="#linearGradient9773"
       inkscape:collect="always" />
    <pattern
       id="pattern2138"
       patternTransform="matrix(5.438038,0.000000,0.000000,6.006400,-276.6142,-330.6272)"
       height="79.527557"
       width="80.934296"
       patternUnits="userSpaceOnUse">
      <rect
         transform="translate(276.6140,330.6271)"
         id="rect2140"
         y="-330.62708"
         x="-276.61395"
         height="79.527557"
         width="80.934296"
         style="fill:url(#pattern2124);fill-opacity:1.0000000;stroke:none" />
    </pattern>
    <pattern
       id="pattern2132"
       patternTransform="translate(-278.1246,-354.3307)"
       height="71.965675"
       width="319.13364"
       patternUnits="userSpaceOnUse">
      <rect
         transform="translate(278.1246,354.3307)"
         id="rect2134"
         y="-354.33069"
         x="-278.12460"
         height="71.965675"
         width="319.13364"
         style="fill:url(#pattern1382);fill-opacity:1.0000000;stroke:none" />
    </pattern>
    <pattern
       id="pattern2124"
       patternTransform="translate(-276.6140,-330.6271)"
       height="398.38699"
       width="568.67578"
       patternUnits="userSpaceOnUse">
      <rect
         transform="translate(302.6758,344.3386)"
         id="rect2126"
         y="-344.33856"
         x="-302.67578"
         height="398.38699"
         width="568.67578"
         style="fill:url(#pattern1382);stroke:none;fill-rule:nonzero" />
    </pattern>
    <pattern
       id="pattern1382"
       patternTransform="translate(-302.6758,-344.3386)"
       height="398.38699"
       width="568.67578"
       patternUnits="userSpaceOnUse">
      <image
         transform="translate(-93.39227,-216.7053)"
         y="216.70532"
         x="93.392265"
         xlink:href="/home/juergen/lyx/lyx-stable/lib/images/banner.ppm"
         sodipodi:absref="/home/juergen/lyx/lyx-stable/lib/images/banner.ppm"
         width="568.67578"
         height="398.38699"
         id="image1384" />
    </pattern>
    <linearGradient
       id="linearGradient2144">
      <stop
         id="stop2146"
         offset="0.0000000"
         style="stop-color:#4e96a7;stop-opacity:1.0000000;" />
      <stop
         style="stop-color:#1d344e;stop-opacity:0.49803922;"
         offset="0.0000000"
         id="stop5721" />
      <stop
         id="stop5723"
         offset="0.0000000"
         style="stop-color:#243d68;stop-opacity:0.24705882;" />
      <stop
         style="stop-color:#274275;stop-opacity:0.12156863;"
         offset="0.0000000"
         id="stop5725" />
      <stop
         id="stop5727"
         offset="0.0000000"
         style="stop-color:#29447b;stop-opacity:0.058823529;" />
      <stop
         style="stop-color:#2a457e;stop-opacity:0.027450980;"
         offset="0.0000000"
         id="stop5729" />
      <stop
         id="stop5731"
         offset="0.0000000"
         style="stop-color:#2a4680;stop-opacity:0.011764706;" />
      <stop
         style="stop-color:#2a4681;stop-opacity:0.0039215686;"
         offset="0.0000000"
         id="stop5733" />
      <stop
         id="stop5735"
         offset="0.0000000"
         style="stop-color:#2a4681;stop-opacity:0.0000000;" />
      <stop
         style="stop-color:#2a4681;stop-opacity:0.0000000;"
         offset="0.0000000"
         id="stop5737" />
      <stop
         id="stop5739"
         offset="0.0000000"
         style="stop-color:#2a4681;stop-opacity:0.0000000;" />
      <stop
         style="stop-color:#2a4681;stop-opacity:0.0000000;"
         offset="0.0000000"
         id="stop5741" />
      <stop
         id="stop5743"
         offset="0.0000000"
         style="stop-color:#2a4681;stop-opacity:0.0000000;" />
      <stop
         style="stop-color:#2a4681;stop-opacity:0.0000000;"
         offset="0.0000000"
         id="stop5745" />
      <stop
         id="stop5747"
         offset="0.0000000"
         style="stop-color:#2a4681;stop-opacity:0.0000000;" />
      <stop
         style="stop-color:#0d1b52;stop-opacity:1.0000000;"
         offset="0.99996418"
         id="stop5749" />
      <stop
         id="stop2148"
         offset="1"
         style="stop-color:#2b4782;stop-opacity:0;" />
    </linearGradient>
    <linearGradient
       id="linearGradient8287">
      <stop
         style="stop-color:#1f335e;stop-opacity:1.0000000;"
         offset="0.0000000"
         id="stop8289" />
      <stop
         style="stop-color:#1f335e;stop-opacity:0;"
         offset="1"
         id="stop8291" />
    </linearGradient>
    <linearGradient
       id="linearGradient8293"
       inkscape:collect="always">
      <stop
         id="stop8295"
         offset="0"
         style="stop-color:#067306;stop-opacity:1.0000000" />
      <stop
         id="stop8297"
         offset="1"
         style="stop-color:#000033;stop-opacity:0;" />
    </linearGradient>
    <linearGradient
       id="linearGradient9773">
      <stop
         id="stop9775"
         offset="0.0000000"
         style="stop-color:#5f7bd3;stop-opacity:0.62114537;" />
      <stop
         id="stop9777"
         offset="1"
         style="stop-color:#1b2162;stop-opacity:0;" />
    </linearGradient>
    <linearGradient
       id="linearGradient11309"
       inkscape:collect="always">
      <stop
         id="stop11311"
         offset="0"
         style="stop-color:#0c0000;stop-opacity:1;" />
      <stop
         id="stop11313"
         offset="1"
         style="stop-color:#0c0000;stop-opacity:0;" />
    </linearGradient>
    <linearGradient
       id="linearGradient11319"
       inkscape:collect="always">
      <stop
         id="stop11321"
         offset="0"
         style="stop-color:#002042;stop-opacity:1;" />
      <stop
         id="stop11323"
         offset="1"
         style="stop-color:#002042;stop-opacity:0;" />
    </linearGradient>
  </defs>
  <sodipodi:namedview
     pagecolor="#ffffff"
     bordercolor="#666666"
     borderopacity="1"
     objecttolerance="10"
     gridtolerance="10"
     guidetolerance="10"
     inkscape:pageopacity="0"
     inkscape:pageshadow="2"
     inkscape:window-width="1918"
     inkscape:window-height="1186"
     id="namedview3446"
     showgrid="false"
     inkscape:zoom="10.66"
     inkscape:cx="8.8968105"
     inkscape:cy="24"
     inkscape:window-x="0"
     inkscape:window-y="0"
     inkscape:window-maximized="0"
     inkscape:current-layer="svg3418" />
  <path
     d="m8 1c-1.0286 0-2 0.9714-2 2v42c0 0.97143 1.0286 2 2 2h32c0.97143 0 2-1.0286 2-2v-31l-13-13z"
     fill="#dcdcdc"
     id="path3420" />
  <path
     d="m29 12 0.062 0.062 0.157-0.062h-0.219zm2 2 11 11v-11h-11z"
     fill-opacity=".196"
     id="path3422" />
  <path
     fill="#fff"
     d="m29 1 13 13h-11c-0.97143 0-2-1.0286-2-2v-11z"
     fill-opacity=".392"
     id="path3424" />
  <g
     transform="translate(-0.5,-2)"
     id="g3426">
    <rect
       rx="0.579"
       ry="0.60100001"
       height="7"
       width="8"
       y="17"
       x="16"
       id="rect3428"
       style="fill:#888888" />
  </g>
  <g
     transform="translate(-0.5,-2)"
     id="g3430"
     style="fill:#555555;stroke:#888888;stroke-linecap:round;stroke-linejoin:round;stroke-dashoffset:0.774">
    <path
       d="m 26.5,17.5 h 5"
       id="path3432"
       inkscape:connector-curvature="0" />
    <path
       d="m 26.5,20.5 h 5"
       id="path3434"
       inkscape:connector-curvature="0" />
    <path
       d="m 26.5,23.5 h 5"
       id="path3436"
       inkscape:connector-curvature="0" />
    <path
       d="M 16,26.5 H 32"
       id="path3438"
       inkscape:connector-curvature="0" />
    <path
       d="M 16,29.5 H 32"
       id="path3440"
       inkscape:connector-curvature="0" />
    <path
       d="M 16,32.5 H 32"
       id="path3442"
       inkscape:connector-curvature="0" />
    <path
       d="M 16,35.5 H 32"
       id="path3444"
       inkscape:connector-curvature="0" />
  </g>
  <g
     style="stroke:#ffffff;stroke-width:11.73757458;stroke-linejoin:round;stroke-miterlimit:4;stroke-opacity:0.69651741;stroke-dasharray:none;display:inline"
     id="layer1"
     inkscape:label="Ebene 1"
     transform="matrix(0.07686326,0,0,0.07686326,2.4827516,9.1057363)">
    <path
       sodipodi:nodetypes="cccccccc"
       id="path1388"
       d="m 116.15587,415.90634 -77.432434,-178.99963 62.348184,-29.16286 1.50843,-2.01123 50.28079,121.67952 60.33696,-30.67128 27.15162,57.82291 -124.19355,61.34257 z"
       style="fill:#007fff;fill-opacity:1;fill-rule:evenodd;stroke:#ffffff;stroke-width:11.73757458;stroke-linecap:butt;stroke-linejoin:round;stroke-miterlimit:4;stroke-opacity:0.69651741;stroke-dasharray:none"
       inkscape:connector-curvature="0" />
    <path
       sodipodi:nodetypes="cccccccccc"
       id="path1390"
       d="m 169.95631,235.39829 77.93523,10.55896 23.12917,48.26957 29.16286,-41.73306 78.43804,10.05616 -71.90154,102.57282 -17.59828,98.04754 -72.90715,-11.56458 12.5702,-87.99139 -58.82853,-128.21602 z"
       style="fill:#ffc000;fill-opacity:1;fill-rule:evenodd;stroke:#ffffff;stroke-width:11.73757458;stroke-linecap:butt;stroke-linejoin:round;stroke-miterlimit:4;stroke-opacity:0.69651741;stroke-dasharray:none"
       inkscape:connector-curvature="0" />
    <path
       sodipodi:nodetypes="ccccccccccccc"
       id="path1392"
       d="m 339.40259,176.06695 68.38188,11.56458 15.58705,43.74429 29.16286,-34.69374 74.91838,14.07862 -65.36503,75.924 40.22463,110.11494 -80.44927,-6.0337 -15.58704,-59.83414 -35.19656,50.28079 -62.85099,-18.10109 60.83976,-90.00262 -29.66567,-97.04193 z"
       style="fill:#cb3300;fill-opacity:1;fill-rule:evenodd;stroke:#ffffff;stroke-width:11.73757458;stroke-linecap:butt;stroke-linejoin:round;stroke-miterlimit:4;stroke-opacity:0.69651741;stroke-dasharray:none"
       inkscape:connector-curvature="0" />
  </g>
</svg>
